{
    "window.zoomLevel": 1,
    "vim.disableAnnoyingNeovimMessage": true,
    "editor.minimap.enabled": false,
    "editor.rulers": [80],
    "files.trimTrailingWhitespace": true,
    "editor.fontSize": 14,
    "editor.fontLigatures": true,
    "editor.fontFamily": "Fira Code"
    //"workbench.colorTheme": "Visual Studio Light",
}
